<?xml version="1.0" encoding="UTF-8" standalone="no"?>
<svg
   xmlns:dc="http://purl.org/dc/elements/1.1/"
   xmlns:cc="http://creativecommons.org/ns#"
   xmlns:rdf="http://www.w3.org/1999/02/22-rdf-syntax-ns#"
   xmlns:svg="http://www.w3.org/2000/svg"
   xmlns="http://www.w3.org/2000/svg"
   viewBox="0 0 89.9416 85.698715"
   height="85.698715"
   width="89.941605"
   xml:space="preserve"
   version="1.1"
   id="svg2"><metadata
     id="metadata8"><rdf:RDF><cc:Work
         rdf:about=""><dc:format>image/svg+xml</dc:format><dc:type
           rdf:resource="http://purl.org/dc/dcmitype/StillImage" /><dc:title></dc:title></cc:Work></rdf:RDF></metadata><defs
     id="defs6"><clipPath
       id="clipPath18"
       clipPathUnits="userSpaceOnUse"><path
         id="path20"
         d="m 0,595.276 841.89,0 L 841.89,0 0,0 0,595.276 Z" /></clipPath><clipPath
       id="clipPath52"
       clipPathUnits="userSpaceOnUse"><path
         id="path54"
         d="m 0,0 841.89,0 0,595.276 L 0,595.276 0,0 Z" /></clipPath><clipPath
       id="clipPath68"
       clipPathUnits="userSpaceOnUse"><path
         id="path70"
         d="m 0,0 841.89,0 0,595.276 L 0,595.276 0,0 Z" /></clipPath><clipPath
       id="clipPath90"
       clipPathUnits="userSpaceOnUse"><path
         id="path92"
         d="m 0,0 841.89,0 0,595.276 L 0,595.276 0,0 Z" /></clipPath><clipPath
       id="clipPath106"
       clipPathUnits="userSpaceOnUse"><path
         id="path108"
         d="m 0,0 841.89,0 0,595.276 L 0,595.276 0,0 Z" /></clipPath><clipPath
       id="clipPath122"
       clipPathUnits="userSpaceOnUse"><path
         id="path124"
         d="m 0,0 841.89,0 0,595.276 L 0,595.276 0,0 Z" /></clipPath></defs><g
     transform="matrix(1.25,0,0,-1.25,-536.04676,266.24527)"
     id="g10"><text
       id="text98"
       style="font-variant:normal;font-weight:bold;font-stretch:normal;font-size:21.79851532px;font-family:Ubuntu;-inkscape-font-specification:Ubuntu-Bold;writing-mode:lr-tb;fill:#000000;fill-opacity:1;fill-rule:nonzero;stroke:none"
       transform="matrix(0.99999932,0.0011698,0.0011698,-0.99999932,427.1114,144.6813)"><tspan
         id="tspan100"
         y="0"
         x="0 14.038243 20.338015 29.536987 41.591568 51.270107 64.000443">Pirates</tspan></text>
<g
       id="g102"><g
         clip-path="url(#clipPath106)"
         id="g104"><g
           transform="translate(452.6406,207.0962)"
           id="g110"><path
             id="path112"
             style="fill:#000000;fill-opacity:1;fill-rule:nonzero;stroke:none"
             d="m 0,0 0.005,-4.372 c -1.608,-0.492 -2.533,-1.001 -2.382,-1.328 0.528,0.155 1.374,0.224 2.384,0.16 l 0.026,-22.715 c -2.451,-4.734 1.07,-11.987 1.07,-11.987 0,0 -2.617,7.74 3.187,11.411 5.34,3.377 23.764,1.815 23.688,12.212 C 27.871,-1.892 10.885,-2.001 2.366,-3.777 L 2.361,0.003 0,0 Z m 2.368,-5.901 c 4.264,-1.02 9.272,-4.28 7.619,-12.152 -0.823,-3.919 -5.101,-5.971 -7.595,-7.666 L 2.368,-5.901 Z m 8.199,-39.734 C -3.664,-45.652 -15.214,-34.129 -15.23,-19.898 -15.247,-5.667 -3.724,5.883 10.507,5.9 24.738,5.916 36.287,-5.607 36.304,-19.838 36.321,-34.068 24.798,-45.618 10.567,-45.635" /></g></g></g></g></svg>